module github.com/PakSerVal/bear-masha

go 1.19

require (
	github.com/golang-jwt/jwt/v4 v4.4.2
	github.com/gorilla/mux v1.8.0
	github.com/gorilla/schema v1.2.0
	github.com/jackc/pgx v3.6.2+incompatible
	github.com/jmoiron/sqlx v1.3.5
	github.com/pkg/errors v0.9.1
	github.com/stretchr/testify v1.8.0
	go.uber.org/zap v1.23.0
)

require (
	github.com/cockroachdb/apd v1.1.0 // indirect
	github.com/davecgh/go-spew v1.1.1 // indirect
	github.com/gofrs/uuid v4.3.1+incompatible // indirect
	github.com/jackc/fake v0.0.0-20150926172116-812a484cc733 // indirect
	github.com/lib/pq v1.10.7 // indirect
	github.com/pmezard/go-difflib v1.0.0 // indirect
	github.com/shopspring/decimal v1.3.1 // indirect
	github.com/stretchr/objx v0.4.0 // indirect
	go.uber.org/atomic v1.7.0 // indirect
	go.uber.org/multierr v1.6.0 // indirect
	golang.org/x/crypto v0.3.0 // indirect
	golang.org/x/text v0.4.0 // indirect
	gopkg.in/yaml.v3 v3.0.1 // indirect
)
